<svg width="176" height="36" viewBox="0 0 176 36" fill="none" xmlns="http://www.w3.org/2000/svg">
<path d="M4 8C6.20914 8 8 6.20914 8 4C8 1.79086 6.20914 0 4 0C1.79086 0 0 1.79086 0 4C0 6.20914 1.79086 8 4 8Z" fill="#D7D8D9"/>
<path d="M4 36C6.20914 36 8 34.2091 8 32C8 29.7909 6.20914 28 4 28C1.79086 28 0 29.7909 0 32C0 34.2091 1.79086 36 4 36Z" fill="#D7D8D9"/>
<path d="M32 8C34.2091 8 36 6.20914 36 4C36 1.79086 34.2091 0 32 0C29.7909 0 28 1.79086 28 4C28 6.20914 29.7909 8 32 8Z" fill="#D7D8D9"/>
<path d="M32 36C34.2091 36 36 34.2091 36 32C36 29.7909 34.2091 28 32 28C29.7909 28 28 29.7909 28 32C28 34.2091 29.7909 36 32 36Z" fill="#D7D8D9"/>
<path d="M60 8C62.2091 8 64 6.20914 64 4C64 1.79086 62.2091 0 60 0C57.7909 0 56 1.79086 56 4C56 6.20914 57.7909 8 60 8Z" fill="#D7D8D9"/>
<path d="M60 36C62.2091 36 64 34.2091 64 32C64 29.7909 62.2091 28 60 28C57.7909 28 56 29.7909 56 32C56 34.2091 57.7909 36 60 36Z" fill="#D7D8D9"/>
<path d="M88 8C90.2091 8 92 6.20914 92 4C92 1.79086 90.2091 0 88 0C85.7909 0 84 1.79086 84 4C84 6.20914 85.7909 8 88 8Z" fill="#D7D8D9"/>
<path d="M88 36C90.2091 36 92 34.2091 92 32C92 29.7909 90.2091 28 88 28C85.7909 28 84 29.7909 84 32C84 34.2091 85.7909 36 88 36Z" fill="#D7D8D9"/>
<path d="M116 8C118.209 8 120 6.20914 120 4C120 1.79086 118.209 0 116 0C113.791 0 112 1.79086 112 4C112 6.20914 113.791 8 116 8Z" fill="#D7D8D9"/>
<path d="M116 36C118.209 36 120 34.2091 120 32C120 29.7909 118.209 28 116 28C113.791 28 112 29.7909 112 32C112 34.2091 113.791 36 116 36Z" fill="#D7D8D9"/>
<path d="M144 8C146.209 8 148 6.20914 148 4C148 1.79086 146.209 0 144 0C141.791 0 140 1.79086 140 4C140 6.20914 141.791 8 144 8Z" fill="#D7D8D9"/>
<path d="M144 36C146.209 36 148 34.2091 148 32C148 29.7909 146.209 28 144 28C141.791 28 140 29.7909 140 32C140 34.2091 141.791 36 144 36Z" fill="#D7D8D9"/>
<path d="M172 8C174.209 8 176 6.20914 176 4C176 1.79086 174.209 0 172 0C169.791 0 168 1.79086 168 4C168 6.20914 169.791 8 172 8Z" fill="#D7D8D9"/>
<path d="M172 36C174.209 36 176 34.2091 176 32C176 29.7909 174.209 28 172 28C169.791 28 168 29.7909 168 32C168 34.2091 169.791 36 172 36Z" fill="#D7D8D9"/>
</svg>
