<svg width="330" height="78" viewBox="0 0 330 78" fill="none" xmlns="http://www.w3.org/2000/svg">
<path d="M328 20C314.416 20 314.417 2 300.841 2C287.265 2 287.259 20 273.68 19.9932C260.1 19.9865 260.094 2 246.511 2C232.928 2 232.932 19.9933 219.353 19.9981C205.773 20.0029 205.768 1.99995 192.185 2.00476C178.602 2.00957 178.602 19.9981 165.023 19.9981C151.443 19.9981 151.436 2.00476 137.851 2.00476C124.265 2.00476 124.274 20.0029 110.691 19.9981C97.1077 19.9933 97.1053 2.00476 83.521 2.00476C69.9368 2.00476 69.9344 19.9981 56.3513 19.9981C42.7683 19.9981 42.7611 2.00476 29.172 2.00476C15.583 2.00476 15.5878 19.9981 2 19.9981M328 48.001C314.416 48.001 314.417 30.001 300.841 30.001C287.265 30.001 287.259 48.001 273.68 47.9942C260.1 47.9875 260.094 30.001 246.511 30.001C232.928 30.001 232.932 47.9942 219.353 47.999C205.773 48.0038 205.768 30.0009 192.185 30.0057C178.602 30.0105 178.602 47.999 165.023 47.999C151.443 47.999 151.436 30.0057 137.851 30.0057C124.265 30.0057 124.274 48.0038 110.691 47.999C97.1077 47.9942 97.1053 30.0057 83.521 30.0057C69.9368 30.0057 69.9344 47.999 56.3513 47.999C42.7683 47.999 42.7611 30.0057 29.172 30.0057C15.583 30.0057 15.5878 47.999 2 47.999M328 76.001C314.416 76.001 314.417 58.001 300.841 58.001C287.265 58.001 287.259 76.001 273.68 75.9942C260.1 75.9875 260.094 58.001 246.511 58.001C232.928 58.001 232.932 75.9942 219.353 75.999C205.773 76.0038 205.768 58.0009 192.185 58.0057C178.602 58.0105 178.602 75.999 165.023 75.999C151.443 75.999 151.436 58.0057 137.851 58.0057C124.265 58.0057 124.274 76.0038 110.691 75.999C97.1077 75.9942 97.1053 58.0057 83.521 58.0057C69.9368 58.0057 69.9344 75.999 56.3513 75.999C42.7683 75.999 42.7611 58.0057 29.172 58.0057C15.583 58.0057 15.5878 75.999 2 75.999" stroke="#C5CEE0" stroke-width="4" stroke-miterlimit="10" stroke-linecap="round"/>
</svg>
